work/tb_main.vcd
$date
  Wed Jan 27 17:52:18 2016
$end
$version
  GHDL v0
$end
$timescale
  1 fs
$end
$var reg 8 ! led[7:0] $end
$var reg 8 " slide_switch[7:0] $end
$scope module main $end
$var reg 8 # slide_switch[7:0] $end
$var reg 8 $ led[7:0] $end
$upscope $end
$enddefinitions $end
#0
b00000000 !
b00000000 "
b00000000 #
b00000000 $
#5000000
b00000001 !
b00000001 "
b00000001 #
b00000001 $
#10000000
b00000010 !
b00000010 "
b00000010 #
b00000010 $
#15000000
b00000011 !
b00000011 "
b00000011 #
b00000011 $
#20000000
b00000100 !
b00000100 "
b00000100 #
b00000100 $
#25000000
b00000101 !
b00000101 "
b00000101 #
b00000101 $
#30000000
b00000110 !
b00000110 "
b00000110 #
b00000110 $
#35000000
b00000111 !
b00000111 "
b00000111 #
b00000111 $
#40000000
b00001000 !
b00001000 "
b00001000 #
b00001000 $
#45000000
b00001001 !
b00001001 "
b00001001 #
b00001001 $
#50000000
b00001010 !
b00001010 "
b00001010 #
b00001010 $
#55000000
b00001011 !
b00001011 "
b00001011 #
b00001011 $
#60000000
b00001100 !
b00001100 "
b00001100 #
b00001100 $
#65000000
b00001101 !
b00001101 "
b00001101 #
b00001101 $
#70000000
b00001110 !
b00001110 "
b00001110 #
b00001110 $
#75000000
b00001111 !
b00001111 "
b00001111 #
b00001111 $
#80000000
b00010000 !
b00010000 "
b00010000 #
b00010000 $
#85000000
b00010001 !
b00010001 "
b00010001 #
b00010001 $
#90000000
b00010010 !
b00010010 "
b00010010 #
b00010010 $
#95000000
b00010011 !
b00010011 "
b00010011 #
b00010011 $
#100000000
b00010100 !
b00010100 "
b00010100 #
b00010100 $
#105000000
b00010101 !
b00010101 "
b00010101 #
b00010101 $
#110000000
b00010110 !
b00010110 "
b00010110 #
b00010110 $
#115000000
b00010111 !
b00010111 "
b00010111 #
b00010111 $
#120000000
b00011000 !
b00011000 "
b00011000 #
b00011000 $
#125000000
b00011001 !
b00011001 "
b00011001 #
b00011001 $
#130000000
b00011010 !
b00011010 "
b00011010 #
b00011010 $
#135000000
b00011011 !
b00011011 "
b00011011 #
b00011011 $
#140000000
b00011100 !
b00011100 "
b00011100 #
b00011100 $
#145000000
b00011101 !
b00011101 "
b00011101 #
b00011101 $
#150000000
b00011110 !
b00011110 "
b00011110 #
b00011110 $
#155000000
b00011111 !
b00011111 "
b00011111 #
b00011111 $
#160000000
b00100000 !
b00100000 "
b00100000 #
b00100000 $
#165000000
b00100001 !
b00100001 "
b00100001 #
b00100001 $
#170000000
b00100010 !
b00100010 "
b00100010 #
b00100010 $
#175000000
b00100011 !
b00100011 "
b00100011 #
b00100011 $
#180000000
b00100100 !
b00100100 "
b00100100 #
b00100100 $
#185000000
b00100101 !
b00100101 "
b00100101 #
b00100101 $
#190000000
b00100110 !
b00100110 "
b00100110 #
b00100110 $
#195000000
b00100111 !
b00100111 "
b00100111 #
b00100111 $
#200000000
b00101000 !
b00101000 "
b00101000 #
b00101000 $
#205000000
b00101001 !
b00101001 "
b00101001 #
b00101001 $
#210000000
b00101010 !
b00101010 "
b00101010 #
b00101010 $
#215000000
b00101011 !
b00101011 "
b00101011 #
b00101011 $
#220000000
b00101100 !
b00101100 "
b00101100 #
b00101100 $
#225000000
b00101101 !
b00101101 "
b00101101 #
b00101101 $
#230000000
b00101110 !
b00101110 "
b00101110 #
b00101110 $
#235000000
b00101111 !
b00101111 "
b00101111 #
b00101111 $
#240000000
b00110000 !
b00110000 "
b00110000 #
b00110000 $
#245000000
b00110001 !
b00110001 "
b00110001 #
b00110001 $
#250000000
b00110010 !
b00110010 "
b00110010 #
b00110010 $
#255000000
b00110011 !
b00110011 "
b00110011 #
b00110011 $
#260000000
b00110100 !
b00110100 "
b00110100 #
b00110100 $
#265000000
b00110101 !
b00110101 "
b00110101 #
b00110101 $
#270000000
b00110110 !
b00110110 "
b00110110 #
b00110110 $
#275000000
b00110111 !
b00110111 "
b00110111 #
b00110111 $
#280000000
b00111000 !
b00111000 "
b00111000 #
b00111000 $
#285000000
b00111001 !
b00111001 "
b00111001 #
b00111001 $
#290000000
b00111010 !
b00111010 "
b00111010 #
b00111010 $
#295000000
b00111011 !
b00111011 "
b00111011 #
b00111011 $
#300000000
b00111100 !
b00111100 "
b00111100 #
b00111100 $
#305000000
b00111101 !
b00111101 "
b00111101 #
b00111101 $
#310000000
b00111110 !
b00111110 "
b00111110 #
b00111110 $
#315000000
b00111111 !
b00111111 "
b00111111 #
b00111111 $
#320000000
b01000000 !
b01000000 "
b01000000 #
b01000000 $
#325000000
b01000001 !
b01000001 "
b01000001 #
b01000001 $
#330000000
b01000010 !
b01000010 "
b01000010 #
b01000010 $
#335000000
b01000011 !
b01000011 "
b01000011 #
b01000011 $
#340000000
b01000100 !
b01000100 "
b01000100 #
b01000100 $
#345000000
b01000101 !
b01000101 "
b01000101 #
b01000101 $
#350000000
b01000110 !
b01000110 "
b01000110 #
b01000110 $
#355000000
b01000111 !
b01000111 "
b01000111 #
b01000111 $
#360000000
b01001000 !
b01001000 "
b01001000 #
b01001000 $
#365000000
b01001001 !
b01001001 "
b01001001 #
b01001001 $
#370000000
b01001010 !
b01001010 "
b01001010 #
b01001010 $
#375000000
b01001011 !
b01001011 "
b01001011 #
b01001011 $
#380000000
b01001100 !
b01001100 "
b01001100 #
b01001100 $
#385000000
b01001101 !
b01001101 "
b01001101 #
b01001101 $
#390000000
b01001110 !
b01001110 "
b01001110 #
b01001110 $
#395000000
b01001111 !
b01001111 "
b01001111 #
b01001111 $
#400000000
b01010000 !
b01010000 "
b01010000 #
b01010000 $
#405000000
b01010001 !
b01010001 "
b01010001 #
b01010001 $
#410000000
b01010010 !
b01010010 "
b01010010 #
b01010010 $
#415000000
b01010011 !
b01010011 "
b01010011 #
b01010011 $
#420000000
b01010100 !
b01010100 "
b01010100 #
b01010100 $
#425000000
b01010101 !
b01010101 "
b01010101 #
b01010101 $
#430000000
b01010110 !
b01010110 "
b01010110 #
b01010110 $
#435000000
b01010111 !
b01010111 "
b01010111 #
b01010111 $
#440000000
b01011000 !
b01011000 "
b01011000 #
b01011000 $
#445000000
b01011001 !
b01011001 "
b01011001 #
b01011001 $
#450000000
b01011010 !
b01011010 "
b01011010 #
b01011010 $
#455000000
b01011011 !
b01011011 "
b01011011 #
b01011011 $
#460000000
b01011100 !
b01011100 "
b01011100 #
b01011100 $
#465000000
b01011101 !
b01011101 "
b01011101 #
b01011101 $
#470000000
b01011110 !
b01011110 "
b01011110 #
b01011110 $
#475000000
b01011111 !
b01011111 "
b01011111 #
b01011111 $
#480000000
b01100000 !
b01100000 "
b01100000 #
b01100000 $
#485000000
b01100001 !
b01100001 "
b01100001 #
b01100001 $
#490000000
b01100010 !
b01100010 "
b01100010 #
b01100010 $
#495000000
b01100011 !
b01100011 "
b01100011 #
b01100011 $
#500000000
b01100100 !
b01100100 "
b01100100 #
b01100100 $
#505000000
b01100101 !
b01100101 "
b01100101 #
b01100101 $
#510000000
b01100110 !
b01100110 "
b01100110 #
b01100110 $
#515000000
b01100111 !
b01100111 "
b01100111 #
b01100111 $
#520000000
b01101000 !
b01101000 "
b01101000 #
b01101000 $
#525000000
b01101001 !
b01101001 "
b01101001 #
b01101001 $
#530000000
b01101010 !
b01101010 "
b01101010 #
b01101010 $
#535000000
b01101011 !
b01101011 "
b01101011 #
b01101011 $
#540000000
b01101100 !
b01101100 "
b01101100 #
b01101100 $
#545000000
b01101101 !
b01101101 "
b01101101 #
b01101101 $
#550000000
b01101110 !
b01101110 "
b01101110 #
b01101110 $
#555000000
b01101111 !
b01101111 "
b01101111 #
b01101111 $
#560000000
b01110000 !
b01110000 "
b01110000 #
b01110000 $
#565000000
b01110001 !
b01110001 "
b01110001 #
b01110001 $
#570000000
b01110010 !
b01110010 "
b01110010 #
b01110010 $
#575000000
b01110011 !
b01110011 "
b01110011 #
b01110011 $
#580000000
b01110100 !
b01110100 "
b01110100 #
b01110100 $
#585000000
b01110101 !
b01110101 "
b01110101 #
b01110101 $
#590000000
b01110110 !
b01110110 "
b01110110 #
b01110110 $
#595000000
b01110111 !
b01110111 "
b01110111 #
b01110111 $
#600000000
b01111000 !
b01111000 "
b01111000 #
b01111000 $
#605000000
b01111001 !
b01111001 "
b01111001 #
b01111001 $
#610000000
b01111010 !
b01111010 "
b01111010 #
b01111010 $
#615000000
b01111011 !
b01111011 "
b01111011 #
b01111011 $
#620000000
b01111100 !
b01111100 "
b01111100 #
b01111100 $
#625000000
b01111101 !
b01111101 "
b01111101 #
b01111101 $
#630000000
b01111110 !
b01111110 "
b01111110 #
b01111110 $
#635000000
b01111111 !
b01111111 "
b01111111 #
b01111111 $
#640000000
b10000000 !
b10000000 "
b10000000 #
b10000000 $
#645000000
b10000001 !
b10000001 "
b10000001 #
b10000001 $
#650000000
b10000010 !
b10000010 "
b10000010 #
b10000010 $
#655000000
b10000011 !
b10000011 "
b10000011 #
b10000011 $
#660000000
b10000100 !
b10000100 "
b10000100 #
b10000100 $
#665000000
b10000101 !
b10000101 "
b10000101 #
b10000101 $
#670000000
b10000110 !
b10000110 "
b10000110 #
b10000110 $
#675000000
b10000111 !
b10000111 "
b10000111 #
b10000111 $
#680000000
b10001000 !
b10001000 "
b10001000 #
b10001000 $
#685000000
b10001001 !
b10001001 "
b10001001 #
b10001001 $
#690000000
b10001010 !
b10001010 "
b10001010 #
b10001010 $
#695000000
b10001011 !
b10001011 "
b10001011 #
b10001011 $
#700000000
b10001100 !
b10001100 "
b10001100 #
b10001100 $
#705000000
b10001101 !
b10001101 "
b10001101 #
b10001101 $
#710000000
b10001110 !
b10001110 "
b10001110 #
b10001110 $
#715000000
b10001111 !
b10001111 "
b10001111 #
b10001111 $
#720000000
b10010000 !
b10010000 "
b10010000 #
b10010000 $
#725000000
b10010001 !
b10010001 "
b10010001 #
b10010001 $
#730000000
b10010010 !
b10010010 "
b10010010 #
b10010010 $
#735000000
b10010011 !
b10010011 "
b10010011 #
b10010011 $
#740000000
b10010100 !
b10010100 "
b10010100 #
b10010100 $
#745000000
b10010101 !
b10010101 "
b10010101 #
b10010101 $
#750000000
b10010110 !
b10010110 "
b10010110 #
b10010110 $
#755000000
b10010111 !
b10010111 "
b10010111 #
b10010111 $
#760000000
b10011000 !
b10011000 "
b10011000 #
b10011000 $
#765000000
b10011001 !
b10011001 "
b10011001 #
b10011001 $
#770000000
b10011010 !
b10011010 "
b10011010 #
b10011010 $
#775000000
b10011011 !
b10011011 "
b10011011 #
b10011011 $
#780000000
b10011100 !
b10011100 "
b10011100 #
b10011100 $
#785000000
b10011101 !
b10011101 "
b10011101 #
b10011101 $
#790000000
b10011110 !
b10011110 "
b10011110 #
b10011110 $
#795000000
b10011111 !
b10011111 "
b10011111 #
b10011111 $
#800000000
b10100000 !
b10100000 "
b10100000 #
b10100000 $
#805000000
b10100001 !
b10100001 "
b10100001 #
b10100001 $
#810000000
b10100010 !
b10100010 "
b10100010 #
b10100010 $
#815000000
b10100011 !
b10100011 "
b10100011 #
b10100011 $
#820000000
b10100100 !
b10100100 "
b10100100 #
b10100100 $
#825000000
b10100101 !
b10100101 "
b10100101 #
b10100101 $
#830000000
b10100110 !
b10100110 "
b10100110 #
b10100110 $
#835000000
b10100111 !
b10100111 "
b10100111 #
b10100111 $
#840000000
b10101000 !
b10101000 "
b10101000 #
b10101000 $
#845000000
b10101001 !
b10101001 "
b10101001 #
b10101001 $
#850000000
b10101010 !
b10101010 "
b10101010 #
b10101010 $
#855000000
b10101011 !
b10101011 "
b10101011 #
b10101011 $
#860000000
b10101100 !
b10101100 "
b10101100 #
b10101100 $
#865000000
b10101101 !
b10101101 "
b10101101 #
b10101101 $
#870000000
b10101110 !
b10101110 "
b10101110 #
b10101110 $
#875000000
b10101111 !
b10101111 "
b10101111 #
b10101111 $
#880000000
b10110000 !
b10110000 "
b10110000 #
b10110000 $
#885000000
b10110001 !
b10110001 "
b10110001 #
b10110001 $
#890000000
b10110010 !
b10110010 "
b10110010 #
b10110010 $
#895000000
b10110011 !
b10110011 "
b10110011 #
b10110011 $
#900000000
b10110100 !
b10110100 "
b10110100 #
b10110100 $
#905000000
b10110101 !
b10110101 "
b10110101 #
b10110101 $
#910000000
b10110110 !
b10110110 "
b10110110 #
b10110110 $
#915000000
b10110111 !
b10110111 "
b10110111 #
b10110111 $
#920000000
b10111000 !
b10111000 "
b10111000 #
b10111000 $
#925000000
b10111001 !
b10111001 "
b10111001 #
b10111001 $
#930000000
b10111010 !
b10111010 "
b10111010 #
b10111010 $
#935000000
b10111011 !
b10111011 "
b10111011 #
b10111011 $
#940000000
b10111100 !
b10111100 "
b10111100 #
b10111100 $
#945000000
b10111101 !
b10111101 "
b10111101 #
b10111101 $
#950000000
b10111110 !
b10111110 "
b10111110 #
b10111110 $
#955000000
b10111111 !
b10111111 "
b10111111 #
b10111111 $
#960000000
b11000000 !
b11000000 "
b11000000 #
b11000000 $
#965000000
b11000001 !
b11000001 "
b11000001 #
b11000001 $
#970000000
b11000010 !
b11000010 "
b11000010 #
b11000010 $
#975000000
b11000011 !
b11000011 "
b11000011 #
b11000011 $
#980000000
b11000100 !
b11000100 "
b11000100 #
b11000100 $
#985000000
b11000101 !
b11000101 "
b11000101 #
b11000101 $
#990000000
b11000110 !
b11000110 "
b11000110 #
b11000110 $
#995000000
b11000111 !
b11000111 "
b11000111 #
b11000111 $
#1000000000
b11001000 !
b11001000 "
b11001000 #
b11001000 $
#1005000000
b11001001 !
b11001001 "
b11001001 #
b11001001 $
#1010000000
b11001010 !
b11001010 "
b11001010 #
b11001010 $
#1015000000
b11001011 !
b11001011 "
b11001011 #
b11001011 $
#1020000000
b11001100 !
b11001100 "
b11001100 #
b11001100 $
#1025000000
b11001101 !
b11001101 "
b11001101 #
b11001101 $
#1030000000
b11001110 !
b11001110 "
b11001110 #
b11001110 $
#1035000000
b11001111 !
b11001111 "
b11001111 #
b11001111 $
#1040000000
b11010000 !
b11010000 "
b11010000 #
b11010000 $
#1045000000
b11010001 !
b11010001 "
b11010001 #
b11010001 $
#1050000000
b11010010 !
b11010010 "
b11010010 #
b11010010 $
#1055000000
b11010011 !
b11010011 "
b11010011 #
b11010011 $
#1060000000
b11010100 !
b11010100 "
b11010100 #
b11010100 $
#1065000000
b11010101 !
b11010101 "
b11010101 #
b11010101 $
#1070000000
b11010110 !
b11010110 "
b11010110 #
b11010110 $
#1075000000
b11010111 !
b11010111 "
b11010111 #
b11010111 $
#1080000000
b11011000 !
b11011000 "
b11011000 #
b11011000 $
#1085000000
b11011001 !
b11011001 "
b11011001 #
b11011001 $
#1090000000
b11011010 !
b11011010 "
b11011010 #
b11011010 $
#1095000000
b11011011 !
b11011011 "
b11011011 #
b11011011 $
#1100000000
b11011100 !
b11011100 "
b11011100 #
b11011100 $
#1105000000
b11011101 !
b11011101 "
b11011101 #
b11011101 $
#1110000000
b11011110 !
b11011110 "
b11011110 #
b11011110 $
#1115000000
b11011111 !
b11011111 "
b11011111 #
b11011111 $
#1120000000
b11100000 !
b11100000 "
b11100000 #
b11100000 $
#1125000000
b11100001 !
b11100001 "
b11100001 #
b11100001 $
#1130000000
b11100010 !
b11100010 "
b11100010 #
b11100010 $
#1135000000
b11100011 !
b11100011 "
b11100011 #
b11100011 $
#1140000000
b11100100 !
b11100100 "
b11100100 #
b11100100 $
#1145000000
b11100101 !
b11100101 "
b11100101 #
b11100101 $
#1150000000
b11100110 !
b11100110 "
b11100110 #
b11100110 $
#1155000000
b11100111 !
b11100111 "
b11100111 #
b11100111 $
#1160000000
b11101000 !
b11101000 "
b11101000 #
b11101000 $
#1165000000
b11101001 !
b11101001 "
b11101001 #
b11101001 $
#1170000000
b11101010 !
b11101010 "
b11101010 #
b11101010 $
#1175000000
b11101011 !
b11101011 "
b11101011 #
b11101011 $
#1180000000
b11101100 !
b11101100 "
b11101100 #
b11101100 $
#1185000000
b11101101 !
b11101101 "
b11101101 #
b11101101 $
#1190000000
b11101110 !
b11101110 "
b11101110 #
b11101110 $
#1195000000
b11101111 !
b11101111 "
b11101111 #
b11101111 $
#1200000000
b11110000 !
b11110000 "
b11110000 #
b11110000 $
#1205000000
b11110001 !
b11110001 "
b11110001 #
b11110001 $
#1210000000
b11110010 !
b11110010 "
b11110010 #
b11110010 $
#1215000000
b11110011 !
b11110011 "
b11110011 #
b11110011 $
#1220000000
b11110100 !
b11110100 "
b11110100 #
b11110100 $
#1225000000
b11110101 !
b11110101 "
b11110101 #
b11110101 $
#1230000000
b11110110 !
b11110110 "
b11110110 #
b11110110 $
#1235000000
b11110111 !
b11110111 "
b11110111 #
b11110111 $
#1240000000
b11111000 !
b11111000 "
b11111000 #
b11111000 $
#1245000000
b11111001 !
b11111001 "
b11111001 #
b11111001 $
#1250000000
b11111010 !
b11111010 "
b11111010 #
b11111010 $
#1255000000
b11111011 !
b11111011 "
b11111011 #
b11111011 $
#1260000000
b11111100 !
b11111100 "
b11111100 #
b11111100 $
#1265000000
b11111101 !
b11111101 "
b11111101 #
b11111101 $
#1270000000
b11111110 !
b11111110 "
b11111110 #
b11111110 $
#1275000000
b11111111 !
b11111111 "
b11111111 #
b11111111 $
